%YAML 1.1
%TAG !u! tag:unity3d.com,2011:
--- !u!114 &11400000
MonoBehaviour:
  m_ObjectHideFlags: 0
  m_CorrespondingSourceObject: {fileID: 0}
  m_PrefabInternal: {fileID: 0}
  m_GameObject: {fileID: 0}
  m_Enabled: 1
  m_EditorHideFlags: 0
  m_Script: {fileID: 11500000, guid: ac0a5f0935341479ab4e51c6d8d4707f, type: 3}
  m_Name: ShapeFactory
  m_EditorClassIdentifier: 
  prefabs:
  - {fileID: 114514884499979368, guid: 3a4d87d658d2a4a4eb08efe2cc9969c6, type: 2}
  - {fileID: 114937298836919884, guid: 4016294164ead4ea683083c37e81c936, type: 2}
  - {fileID: 114584111734796862, guid: e73beb3b2913947bdad0ea4468d249d3, type: 2}
  materials:
  - {fileID: 2100000, guid: abdcb5e5bd234435bac23a79f9c1ded6, type: 2}
  - {fileID: 2100000, guid: a0ddc95dbbf6943dca37b413d7197d2b, type: 2}
  - {fileID: 2100000, guid: 4d4f5ad7cc9f84affa26323090919a43, type: 2}
  recycle: 1
